<?xml version="1.0" standalone="no"?>
<!DOCTYPE svg PUBLIC "-//W3C//DTD SVG 20010904//EN"
 "http://www.w3.org/TR/2001/REC-SVG-20010904/DTD/svg10.dtd">
<svg version="1.0" xmlns="http://www.w3.org/2000/svg"
 width="540.000000pt" height="540.000000pt" viewBox="0 0 540.000000 540.000000"
 preserveAspectRatio="xMidYMid meet">
<metadata>
Created by potrace 1.11, written by Peter Selinger 2001-2013
</metadata>
<g transform="translate(0.000000,540.000000) scale(0.100000,-0.100000)"
fill="#000000" stroke="none">
<path d="M90 4035 l0 -1296 130 3 131 3 -1 1131 c0 621 3 1145 6 1162 l7 32
1099 0 1099 0 -3 128 -3 127 -1232 3 -1233 2 0 -1295z"/>
<path d="M2740 5190 l0 -130 1160 0 1160 0 0 -1105 0 -1105 130 0 130 0 0
1235 0 1235 -1290 0 -1290 0 0 -130z"/>
<path d="M1942 4535 l3 -80 136 -6 c164 -8 188 -17 205 -76 43 -149 46 -1610
4 -1972 -11 -98 -23 -109 -130 -121 -47 -5 -115 -10 -152 -10 l-68 0 0 -82 0
-83 257 7 c192 6 889 1 1113 -6 12 -1 16 16 18 82 l3 82 -73 0 c-171 1 -249
17 -274 56 -25 37 -33 281 -33 954 0 650 11 1046 29 1098 19 51 54 63 209 71
l136 6 3 80 3 80 -696 0 -696 0 3 -80z"/>
<path d="M3260 3392 l0 -188 41 -39 c83 -81 176 -228 227 -361 75 -196 112
-415 112 -667 0 -368 -75 -662 -226 -888 -144 -214 -410 -339 -724 -339 -342
0 -599 128 -763 380 -162 249 -237 550 -237 950 1 388 84 681 253 881 l57 69
0 173 c0 96 -3 176 -6 179 -6 7 -102 -28 -199 -72 -175 -79 -437 -299 -543
-456 -100 -149 -170 -318 -213 -514 -21 -94 -24 -131 -24 -360 0 -225 3 -268
22 -365 27 -133 68 -255 117 -352 20 -40 36 -76 35 -79 0 -4 3 -10 8 -13 5 -3
29 -35 53 -71 52 -77 211 -239 295 -301 86 -62 283 -159 402 -197 222 -71 444
-98 743 -89 316 9 519 49 763 148 126 51 313 172 409 265 22 21 42 33 49 28 8
-4 9 -3 5 5 -5 7 13 34 45 69 159 174 270 411 330 702 21 103 24 141 24 355
-1 228 -2 246 -29 360 -48 206 -125 370 -240 513 -107 132 -281 269 -446 352
-67 34 -290 110 -322 110 -17 0 -18 -12 -18 -188z"/>
<path d="M5060 1500 l0 -1160 -1105 0 -1106 0 3 -128 3 -127 1228 0 1229 0 1
1287 2 1288 -127 0 -128 0 0 -1160z"/>
<path d="M90 1315 l0 -1235 1290 0 1290 0 0 130 0 130 -1160 0 -1160 0 0 1105
0 1105 -130 0 -130 0 0 -1235z"/>
</g>
</svg>
